%YAML 1.1
%TAG !u! tag:unity3d.com,2011:
--- !u!1 &5123124582915336618
GameObject:
  m_ObjectHideFlags: 0
  m_CorrespondingSourceObject: {fileID: 0}
  m_PrefabInstance: {fileID: 0}
  m_PrefabAsset: {fileID: 0}
  serializedVersion: 6
  m_Component:
  - component: {fileID: 993116341169712655}
  m_Layer: 0
  m_Name: GameObject (1)
  m_TagString: Untagged
  m_Icon: {fileID: 0}
  m_NavMeshLayer: 0
  m_StaticEditorFlags: 0
  m_IsActive: 1
--- !u!4 &993116341169712655
Transform:
  m_ObjectHideFlags: 0
  m_CorrespondingSourceObject: {fileID: 0}
  m_PrefabInstance: {fileID: 0}
  m_PrefabAsset: {fileID: 0}
  m_GameObject: {fileID: 5123124582915336618}
  m_LocalRotation: {x: -0, y: -0, z: -0, w: 1}
  m_LocalPosition: {x: -7, y: -5.4, z: 0}
  m_LocalScale: {x: 1, y: 1, z: 1}
  m_Children:
  - {fileID: 9028155813577255514}
  m_Father: {fileID: 0}
  m_RootOrder: 0
  m_LocalEulerAnglesHint: {x: 0, y: 0, z: 0}
--- !u!1001 &2450842940820051051
PrefabInstance:
  m_ObjectHideFlags: 0
  serializedVersion: 2
  m_Modification:
    m_TransformParent: {fileID: 993116341169712655}
    m_Modifications:
    - target: {fileID: 6866115084171361841, guid: f40295565587c4948be496c684cc9834,
        type: 3}
      propertyPath: m_LocalPosition.x
      value: 0
      objectReference: {fileID: 0}
    - target: {fileID: 6866115084171361841, guid: f40295565587c4948be496c684cc9834,
        type: 3}
      propertyPath: m_LocalPosition.y
      value: 0
      objectReference: {fileID: 0}
    - target: {fileID: 6866115084171361841, guid: f40295565587c4948be496c684cc9834,
        type: 3}
      propertyPath: m_LocalPosition.z
      value: 2.96
      objectReference: {fileID: 0}
    - target: {fileID: 6866115084171361841, guid: f40295565587c4948be496c684cc9834,
        type: 3}
      propertyPath: m_LocalRotation.x
      value: -0
      objectReference: {fileID: 0}
    - target: {fileID: 6866115084171361841, guid: f40295565587c4948be496c684cc9834,
        type: 3}
      propertyPath: m_LocalRotation.y
      value: 1
      objectReference: {fileID: 0}
    - target: {fileID: 6866115084171361841, guid: f40295565587c4948be496c684cc9834,
        type: 3}
      propertyPath: m_LocalRotation.z
      value: -0
      objectReference: {fileID: 0}
    - target: {fileID: 6866115084171361841, guid: f40295565587c4948be496c684cc9834,
        type: 3}
      propertyPath: m_LocalRotation.w
      value: 0
      objectReference: {fileID: 0}
    - target: {fileID: 6866115084171361841, guid: f40295565587c4948be496c684cc9834,
        type: 3}
      propertyPath: m_RootOrder
      value: 0
      objectReference: {fileID: 0}
    - target: {fileID: 6866115084171361841, guid: f40295565587c4948be496c684cc9834,
        type: 3}
      propertyPath: m_LocalEulerAnglesHint.x
      value: 0
      objectReference: {fileID: 0}
    - target: {fileID: 6866115084171361841, guid: f40295565587c4948be496c684cc9834,
        type: 3}
      propertyPath: m_LocalEulerAnglesHint.y
      value: 180
      objectReference: {fileID: 0}
    - target: {fileID: 6866115084171361841, guid: f40295565587c4948be496c684cc9834,
        type: 3}
      propertyPath: m_LocalEulerAnglesHint.z
      value: 0
      objectReference: {fileID: 0}
    - target: {fileID: 7571129946432261154, guid: f40295565587c4948be496c684cc9834,
        type: 3}
      propertyPath: m_Name
      value: idle
      objectReference: {fileID: 0}
    m_RemovedComponents: []
  m_SourcePrefab: {fileID: 100100000, guid: f40295565587c4948be496c684cc9834, type: 3}
--- !u!4 &9028155813577255514 stripped
Transform:
  m_CorrespondingSourceObject: {fileID: 6866115084171361841, guid: f40295565587c4948be496c684cc9834,
    type: 3}
  m_PrefabInstance: {fileID: 2450842940820051051}
  m_PrefabAsset: {fileID: 0}
