%YAML 1.1
%TAG !u! tag:unity3d.com,2011:
--- !u!1 &2003407473476445456
GameObject:
  m_ObjectHideFlags: 0
  m_CorrespondingSourceObject: {fileID: 0}
  m_PrefabInstance: {fileID: 0}
  m_PrefabAsset: {fileID: 0}
  serializedVersion: 6
  m_Component:
  - component: {fileID: 2003407473476445457}
  m_Layer: 0
  m_Name: LottoAnimated
  m_TagString: Untagged
  m_Icon: {fileID: 0}
  m_NavMeshLayer: 0
  m_StaticEditorFlags: 0
  m_IsActive: 1
--- !u!4 &2003407473476445457
Transform:
  m_ObjectHideFlags: 0
  m_CorrespondingSourceObject: {fileID: 0}
  m_PrefabInstance: {fileID: 0}
  m_PrefabAsset: {fileID: 0}
  m_GameObject: {fileID: 2003407473476445456}
  m_LocalRotation: {x: -0.08219068, y: 0, z: 0, w: 0.99661666}
  m_LocalPosition: {x: 0, y: 1.05, z: 0}
  m_LocalScale: {x: 1, y: 1, z: 1}
  m_Children:
  - {fileID: 6824990509893804690}
  m_Father: {fileID: 0}
  m_RootOrder: 0
  m_LocalEulerAnglesHint: {x: -9.429001, y: 0, z: 0}
--- !u!95 &2003407474496930222
Animator:
  serializedVersion: 3
  m_ObjectHideFlags: 0
  m_CorrespondingSourceObject: {fileID: 0}
  m_PrefabInstance: {fileID: 0}
  m_PrefabAsset: {fileID: 0}
  m_GameObject: {fileID: 7560529396331122817}
  m_Enabled: 1
  m_Avatar: {fileID: 0}
  m_Controller: {fileID: 9100000, guid: e5c6e7f3af9edc942a65ea244a0cb388, type: 2}
  m_CullingMode: 0
  m_UpdateMode: 0
  m_ApplyRootMotion: 0
  m_LinearVelocityBlending: 0
  m_WarningMessage: 
  m_HasTransformHierarchy: 1
  m_AllowConstantClipSamplingOptimization: 1
  m_KeepAnimatorControllerStateOnDisable: 0
--- !u!1001 &2003407474739661192
PrefabInstance:
  m_ObjectHideFlags: 0
  serializedVersion: 2
  m_Modification:
    m_TransformParent: {fileID: 2003407473476445457}
    m_Modifications:
    - target: {fileID: -8077166638776537270, guid: 8b65ef99922eb7845bcd5f6cbe95907f,
        type: 3}
      propertyPath: m_Materials.Array.data[0]
      value: 
      objectReference: {fileID: 2100000, guid: 806e873837f299c47965d1e0fe6570a5, type: 2}
    - target: {fileID: -4216859302048453862, guid: 8b65ef99922eb7845bcd5f6cbe95907f,
        type: 3}
      propertyPath: m_LocalPosition.x
      value: 0
      objectReference: {fileID: 0}
    - target: {fileID: -4216859302048453862, guid: 8b65ef99922eb7845bcd5f6cbe95907f,
        type: 3}
      propertyPath: m_LocalPosition.y
      value: 0
      objectReference: {fileID: 0}
    - target: {fileID: -4216859302048453862, guid: 8b65ef99922eb7845bcd5f6cbe95907f,
        type: 3}
      propertyPath: m_LocalPosition.z
      value: 0
      objectReference: {fileID: 0}
    - target: {fileID: -4216859302048453862, guid: 8b65ef99922eb7845bcd5f6cbe95907f,
        type: 3}
      propertyPath: m_LocalRotation.x
      value: -0
      objectReference: {fileID: 0}
    - target: {fileID: -4216859302048453862, guid: 8b65ef99922eb7845bcd5f6cbe95907f,
        type: 3}
      propertyPath: m_LocalRotation.y
      value: 1
      objectReference: {fileID: 0}
    - target: {fileID: -4216859302048453862, guid: 8b65ef99922eb7845bcd5f6cbe95907f,
        type: 3}
      propertyPath: m_LocalRotation.z
      value: -0
      objectReference: {fileID: 0}
    - target: {fileID: -4216859302048453862, guid: 8b65ef99922eb7845bcd5f6cbe95907f,
        type: 3}
      propertyPath: m_LocalRotation.w
      value: 0
      objectReference: {fileID: 0}
    - target: {fileID: -4216859302048453862, guid: 8b65ef99922eb7845bcd5f6cbe95907f,
        type: 3}
      propertyPath: m_RootOrder
      value: 0
      objectReference: {fileID: 0}
    - target: {fileID: -4216859302048453862, guid: 8b65ef99922eb7845bcd5f6cbe95907f,
        type: 3}
      propertyPath: m_LocalEulerAnglesHint.x
      value: 0
      objectReference: {fileID: 0}
    - target: {fileID: -4216859302048453862, guid: 8b65ef99922eb7845bcd5f6cbe95907f,
        type: 3}
      propertyPath: m_LocalEulerAnglesHint.y
      value: 180
      objectReference: {fileID: 0}
    - target: {fileID: -4216859302048453862, guid: 8b65ef99922eb7845bcd5f6cbe95907f,
        type: 3}
      propertyPath: m_LocalEulerAnglesHint.z
      value: 0
      objectReference: {fileID: 0}
    - target: {fileID: -927199367670048503, guid: 8b65ef99922eb7845bcd5f6cbe95907f,
        type: 3}
      propertyPath: m_Name
      value: lottoball
      objectReference: {fileID: 0}
    m_RemovedComponents: []
  m_SourcePrefab: {fileID: 100100000, guid: 8b65ef99922eb7845bcd5f6cbe95907f, type: 3}
--- !u!1 &7560529396331122817 stripped
GameObject:
  m_CorrespondingSourceObject: {fileID: -927199367670048503, guid: 8b65ef99922eb7845bcd5f6cbe95907f,
    type: 3}
  m_PrefabInstance: {fileID: 2003407474739661192}
  m_PrefabAsset: {fileID: 0}
--- !u!4 &6824990509893804690 stripped
Transform:
  m_CorrespondingSourceObject: {fileID: -4216859302048453862, guid: 8b65ef99922eb7845bcd5f6cbe95907f,
    type: 3}
  m_PrefabInstance: {fileID: 2003407474739661192}
  m_PrefabAsset: {fileID: 0}
